\BOOKMARK [1][]{section.1}{1 Introduction}{}
\BOOKMARK [1][]{section.2}{2 Using Qanava}{}
\BOOKMARK [2][]{subsection.2.1}{2.1 Installation}{section.2}
\BOOKMARK [2][]{subsection.2.2}{2.2 Configuring qmake to use Qanava}{section.2}
\BOOKMARK [1][]{section.3}{3 Architecture}{}
\BOOKMARK [2][]{subsection.3.1}{3.1 Overview}{section.3}
\BOOKMARK [2][]{subsection.3.2}{3.2 Qanava Graph Item View}{section.3}
\BOOKMARK [2][]{subsection.3.3}{3.3 Graph Definition}{section.3}
\BOOKMARK [2][]{subsection.3.4}{3.4 Attributes}{section.3}
\BOOKMARK [2][]{subsection.3.5}{3.5 Styles}{section.3}
\BOOKMARK [2][]{subsection.3.6}{3.6 Layouts}{section.3}
\BOOKMARK [2][]{subsection.3.7}{3.7 Using custom graphic nodes}{section.3}
\BOOKMARK [2][]{subsection.3.8}{3.8 Model and View}{section.3}
\BOOKMARK [1][]{section.4}{4 Utility Widgets}{}
\BOOKMARK [1][]{section.5}{5 Samples}{}
